<?xml version="1.0" encoding="UTF-8" standalone="no"?> <svg xmlns="http://www.w3.org/2000/svg" xmlns:xlink="http://www.w3.org/1999/xlink" width="2553pt" height="1246pt" viewBox="0.00 0.00 2553 1245.8">
<g id="graph0" class="graph" transform="translate(4, 1241.800048828125)">
<title>%0</title>
<polygon fill="#ffffff" stroke="transparent" points="-4,4 -4,-1241.8 2549,-1241.8 2549,4 -4,4"></polygon>
<g id="clust1" class="cluster">
<title>cluster</title>
<polygon fill="#234178" fill-opacity="0.184314" stroke="#000000" points="8,-8 8,-1229.8 2537,-1229.8 2537,-8 8,-8"></polygon>
<text text-anchor="middle" x="1272.5" y="-1213.2" font-family="Times,serif" font-size="14.00" fill="#000000">Global</text>
</g>
<g id="clust7" class="cluster">
<title>cluster_2</title>
<polygon fill="#234178" fill-opacity="0.184314" stroke="#000000" points="1795,-1120.2 1795,-1197 2099,-1197 2099,-1120.2 1795,-1120.2"></polygon>
<text text-anchor="middle" x="1947" y="-1180.4" font-family="Times,serif" font-size="14.00" fill="#000000">CellType[confinement]</text>
</g><g id="clust2" class="cluster">
<title>cluster_1</title>
<polygon fill="#234178" fill-opacity="0.184314" stroke="#000000" points="570,-16 570,-1029.2 1909,-1029.2 1909,-16 570,-16"></polygon>
<text text-anchor="middle" x="1239.5" y="-1012.6" font-family="Times,serif" font-size="14.00" fill="#000000">CellType[cell]</text>
</g>
<g id="clust3" class="cluster">
<title>cluster_cpm1</title>
<polygon fill="#234178" fill-opacity="0.184314" stroke="#000000" points="578,-24 578,-114.8 1499,-114.8 1499,-24 578,-24"></polygon>
<text text-anchor="middle" x="1038.5" y="-98.2" font-family="Times,serif" font-size="14.00" fill="#000000">CPM plugins</text>
</g>
<g id="clust5" class="cluster">
<title>cluster_4</title>
<polygon fill="#234178" fill-opacity="0.184314" stroke="#000000" points="578,-655.6 578,-770.4 934,-770.4 934,-655.6 578,-655.6"></polygon>
<text text-anchor="middle" x="756" y="-753.8" font-family="Times,serif" font-size="14.00" fill="#000000">System</text>
</g>
<g id="clust6" class="cluster">
<title>cluster_5</title>
<polygon fill="#234178" fill-opacity="0.184314" stroke="#000000" points="1060,-655.6 1060,-770.4 1404,-770.4 1404,-655.6 1060,-655.6"></polygon>
<text text-anchor="middle" x="1232" y="-753.8" font-family="Times,serif" font-size="14.00" fill="#000000">System</text>
</g>

<g id="clust4" class="cluster">
<title>cluster_3</title>
<polygon fill="#234178" fill-opacity="0.184314" stroke="#000000" points="1290,-344.8 1290,-459.6 1428,-459.6 1428,-344.8 1290,-344.8"></polygon>
<text text-anchor="middle" x="1359" y="-443" font-family="Times,serif" font-size="14.00" fill="#000000">System</text>
</g>
<!-- CPM_0_0_1 -->
<g id="node2" class="node">
<title>CPM_0_0_1</title>
<g id="a_node2">">
<polygon fill="#fffea3" stroke="transparent" points="815.5,-1175.2 760.5,-1175.2 760.5,-1117.2 815.5,-1117.2 815.5,-1175.2"></polygon>
<text text-anchor="start" x="772.6623" y="-1153.7" font-family="times" font-size="15.00" fill="#000000">CPM</text>
<text text-anchor="start" x="779.125" y="-1129.7" font-family="times" font-size="15.00" fill="#000000">0.1</text>
<polygon fill="#000000" stroke="#000000" points="769,-1146.2 769,-1146.2 808,-1146.2 808,-1146.2 769,-1146.2"></polygon>
<polygon fill="none" stroke="#000000" points="768.5,-1121.2 768.5,-1171.2 807.5,-1171.2 807.5,-1121.2 768.5,-1121.2"></polygon>
</g>
</g>
<!-- cell_center_0 -->
<g id="node8" class="node">
<title>cell_center_0</title>
<ellipse fill="#b5b426" stroke="#000000" cx="788" cy="-1059.2" rx="50.9588" ry="18"></ellipse>
<ellipse fill="none" stroke="#000000" cx="788" cy="-1059.2" rx="54.9572" ry="22"></ellipse>
<text text-anchor="middle" x="788" y="-1055" font-family="Times,serif" font-size="14.00" fill="#000000">cell.center</text>
</g>
<!-- CPM_0_0_1&#45;&gt;cell_center_0 -->
<g id="edge2" class="edge">
<title>CPM_0_0_1-&gt;cell_center_0</title>
<path fill="none" stroke="#8f100d" stroke-width="3" d="M788,-1116.7458C788,-1108.6351 788,-1099.7946 788,-1091.531"></path>
<polygon fill="#8f100d" stroke="#8f100d" stroke-width="3" points="791.5001,-1091.4705 788,-1081.4705 784.5001,-1091.4706 791.5001,-1091.4705"></polygon>
</g>
<!-- cell_type_0 -->
<g id="node11" class="node">
<title>cell_type_0</title>
<ellipse fill="#d3d247" stroke="#000000" cx="1967" cy="-887.4" rx="44.0361" ry="18"></ellipse>
<ellipse fill="none" stroke="#000000" cx="1967" cy="-887.4" rx="48.0377" ry="22"></ellipse>
<text text-anchor="middle" x="1967" y="-883.2" font-family="Times,serif" font-size="14.00" fill="#000000">cell.type</text>
</g>
<!-- CPM_0_0_1&#45;&gt;cell_type_0 -->
<g id="edge3" class="edge">
<title>CPM_0_0_1-&gt;cell_type_0</title>
<path fill="none" stroke="#8f100d" stroke-width="3" d="M815.5186,-1145.0476C979.4365,-1137.9613 1823.0867,-1098.3047 1913,-1029.2 1947.0185,-1003.0543 1959.6084,-952.7799 1964.2665,-919.6624"></path>
<polygon fill="#8f100d" stroke="#8f100d" stroke-width="3" points="1967.7613,-919.9197 1965.5172,-909.5652 1960.8143,-919.0591 1967.7613,-919.9197"></polygon>
</g>
<!-- DirectedMotion_9174653547173877159 -->
<g id="node34" class="node">
<title>DirectedMotion_9174653547173877159</title>
<g id="a_node34">">
<polygon fill="#fffea3" stroke="transparent" points="1490.5,-82 1023.5,-82 1023.5,-32 1490.5,-32 1490.5,-82"></polygon>
<text text-anchor="start" x="1209.5975" y="-64.5" font-family="times" font-size="15.00" fill="#000000">DirectedMotion</text>
<text text-anchor="start" x="1027.6393" y="-41.5" font-family="times" font-style="italic" font-size="15.00" fill="#000000">"Directed movement, used for axial cells, set to strength=0 for polster cells."</text>
<polygon fill="none" stroke="#000000" points="1023.5,-32 1023.5,-82 1490.5,-82 1490.5,-32 1023.5,-32"></polygon>
</g>
</g>
<!-- CPM_0_0_1&#45;&gt;DirectedMotion_9174653547173877159 -->
<g id="node35" class="node">
<title>DirectedMotion_11268721651180447268</title>
<g id="a_node35">">
<polygon fill="#fffea3" stroke="transparent" points="1005.5,-82 722.5,-82 722.5,-32 1005.5,-32 1005.5,-82"></polygon>
<text text-anchor="start" x="816.5975" y="-64.5" font-family="times" font-size="15.00" fill="#000000">DirectedMotion</text>
<text text-anchor="start" x="726.9598" y="-41.5" font-family="times" font-style="italic" font-size="15.00" fill="#000000">"RandT or mechanically induced movement."</text>
<polygon fill="none" stroke="#000000" points="722.5,-32 722.5,-82 1005.5,-82 1005.5,-32 722.5,-32"></polygon>
</g>
</g>
<!-- Gnuplotter_0_1 -->
<g id="node1" class="node">
<title>Gnuplotter_0_1</title>
<g id="a_node1">">
<polygon fill="#fffea3" stroke="transparent" points="2446,-414.8 2374,-414.8 2374,-364.8 2446,-364.8 2446,-414.8"></polygon>
<text text-anchor="start" x="2377.507" y="-397.3" font-family="times" font-size="15.00" fill="#000000">Gnuplotter</text>
<text text-anchor="start" x="2406.25" y="-373.3" font-family="times" font-size="15.00" fill="#000000">1</text>
<polygon fill="#000000" stroke="#000000" points="2374,-389.8 2374,-389.8 2446,-389.8 2446,-389.8 2374,-389.8"></polygon>
<polygon fill="none" stroke="#000000" points="2374,-364.8 2374,-414.8 2446,-414.8 2446,-364.8 2374,-364.8"></polygon>
</g>
</g><g id="edge1" class="edge">
<title style="">CPM_0_0_1-&gt;VolumeConstraint_1</title>
<path fill="none" stroke="#38568c" d="M760.3837,-1145.2317C635.8824,-1140.6618 130.3381,-1119.8421 72,-1081.2 28.8004,-1052.5853 17,-1030.217 17,-978.4 17,-978.4 17,-978.4 17,-219.8 17,-104.8659 416.1319,-69.7182 578.0035,-60.1897"></path>
</g>
<!-- RandT_or_Mech_motion_strength_global_0 -->
<g id="node6" class="node">
<title>RandT_or_Mech_motion_strength_global_0</title>
<g id="a_node6">
<ellipse fill="#d3d247" stroke="#000000" cx="210" cy="-796.4" rx="174.2113" ry="18"></ellipse>
<text text-anchor="middle" x="210" y="-792.2" font-family="Times,serif" font-size="14.00" fill="#000000">RandT_or_Mech_motion_strength_global</text>
</g>
</g><g id="node3" class="node">
<title>Logger_4949326139567608441</title>
<g id="a_node3">">
<polygon fill="#fffea3" stroke="transparent" points="557.5,-924.4 186.5,-924.4 186.5,-850.4 557.5,-850.4 557.5,-924.4"></polygon>
<text text-anchor="start" x="350.8423" y="-906.9" font-family="times" font-size="15.00" fill="#000000">Logger</text>
<text text-anchor="start" x="190.8148000000001" y="-883.9" font-family="times" font-style="italic" font-size="15.00" fill="#000000">"Trajectories, one CSV file per cell, single plot for all cells."</text>
<text text-anchor="start" x="365" y="-858.9" font-family="times" font-size="15.00" fill="#000000">20</text>
<polygon fill="#000000" stroke="#000000" points="187,-875.4 187,-875.4 558,-875.4 558,-875.4 187,-875.4"></polygon>
<polygon fill="none" stroke="#000000" points="186.5,-850.4 186.5,-924.4 557.5,-924.4 557.5,-850.4 186.5,-850.4"></polygon>
</g>
</g>
<!-- Event_1365485953541288460 -->
<g id="node4" class="node">
<title>Logger_179941851938438159</title>
<g id="a_node4">">
<polygon fill="#fffea3" stroke="transparent" points="2274,-426.8 2092,-426.8 2092,-352.8 2274,-352.8 2274,-426.8"></polygon>
<text text-anchor="start" x="2161.3423" y="-409.3" font-family="times" font-size="15.00" fill="#000000">Logger</text>
<text text-anchor="start" x="2095.853" y="-386.3" font-family="times" font-style="italic" font-size="15.00" fill="#000000">"MSD for whole population"</text>
<text text-anchor="start" x="2171.75" y="-361.3" font-family="times" font-size="15.00" fill="#000000">100</text>
<polygon fill="#000000" stroke="#000000" points="2092,-377.8 2092,-377.8 2274,-377.8 2274,-377.8 2092,-377.8"></polygon>
<polygon fill="none" stroke="#000000" points="2092,-352.8 2092,-426.8 2274,-426.8 2274,-352.8 2092,-352.8"></polygon>
</g>
</g>
<!-- RandT_or_Mech_motion_strength_global_0&#45;&gt;Event_1365485953541288460 -->
<g id="node5" class="node">
<title>MSD_0</title>
<g id="a_node5">
<ellipse fill="#d3d247" stroke="#000000" cx="2183" cy="-504.6" rx="31.9205" ry="18"></ellipse>
<text text-anchor="middle" x="2183" y="-500.4" font-family="Times,serif" font-size="14.00" fill="#000000">MSD</text>
</g>
</g>
<!-- ablation_0 -->
<g id="node7" class="node">
<title>ablation_0</title>
<g id="a_node7">
<ellipse fill="#d3d247" stroke="#000000" cx="518" cy="-796.4" rx="42.2932" ry="18"></ellipse>
<text text-anchor="middle" x="518" y="-792.2" font-family="Times,serif" font-size="14.00" fill="#000000">ablation</text>
</g>
</g><g id="edge13" class="edge">
<title>MSD_0-&gt;Logger_179941851938438159</title>
<path fill="none" stroke="#112c5f" stroke-width="2" d="M2183,-486.4096C2183,-473.0911 2183,-454.3779 2183,-436.9638"></path>
<polygon fill="#112c5f" stroke="#112c5f" stroke-width="2" points="2186.5001,-436.9112 2183,-426.9113 2179.5001,-436.9113 2186.5001,-436.9112"></polygon>
</g>
<!-- CellDeath_3163870799875249706 -->
<g id="node32" class="node">
<title>CellDeath_3163870799875249706</title>
<g id="a_node32">">
<polygon fill="#fffea3" stroke="transparent" points="1049.5,-737.6 944.5,-737.6 944.5,-663.6 1049.5,-663.6 1049.5,-737.6"></polygon>
<text text-anchor="start" x="967.0935" y="-720.1" font-family="times" font-size="15.00" fill="#000000">CellDeath</text>
<text text-anchor="start" x="948.6915" y="-697.1" font-family="times" font-style="italic" font-size="15.00" fill="#000000">"Laser ablation"</text>
<text text-anchor="start" x="988.125" y="-672.1" font-family="times" font-size="15.00" fill="#000000">0.1</text>
<polygon fill="#000000" stroke="#000000" points="945,-688.6 945,-688.6 1050,-688.6 1050,-688.6 945,-688.6"></polygon>
<polygon fill="none" stroke="#000000" points="944.5,-663.6 944.5,-737.6 1049.5,-737.6 1049.5,-663.6 944.5,-663.6"></polygon>
</g>
</g>
<!-- ablation_0&#45;&gt;CellDeath_3163870799875249706 -->
<g id="edge31" class="edge">
<title>ablation_0-&gt;CellDeath_3163870799875249706</title>
<path fill="none" stroke="#112c5f" stroke-width="2" d="M547.7655,-783.4759C553.703,-781.4032 559.9697,-779.5606 566,-778.4 586.2989,-774.4932 919.3442,-779.3034 938,-770.4 949.7513,-764.7917 960.0314,-755.6066 968.5759,-745.7141"></path>
<polygon fill="#112c5f" stroke="#112c5f" stroke-width="2" points="971.4987,-747.6651 975.0512,-737.6836 966.0496,-743.2711 971.4987,-747.6651"></polygon>
</g><g id="node62" class="node">
<title>Event_3715702343552547593</title>
<g id="a_node62">">
<polygon fill="#fffea3" stroke="transparent" points="926,-737.6 586,-737.6 586,-663.6 926,-663.6 926,-737.6"></polygon>
<text text-anchor="start" x="738.5048" y="-720.1" font-family="times" font-size="15.00" fill="#000000">Event</text>
<text text-anchor="start" x="589.7235" y="-697.1" font-family="times" font-style="italic" font-size="15.00" fill="#000000">"After 20 time steps, set the properties of polster cells."</text>
<text text-anchor="start" x="746.625" y="-672.1" font-family="times" font-size="15.00" fill="#000000">0.1</text>
<polygon fill="#000000" stroke="#000000" points="586,-688.6 586,-688.6 926,-688.6 926,-688.6 586,-688.6"></polygon>
<polygon fill="none" stroke="#000000" points="586,-663.6 586,-737.6 926,-737.6 926,-663.6 586,-663.6"></polygon>
</g>
</g>
<!-- cell_center_x_0 -->
<g id="node9" class="node">
<title>cell_center_x_0</title>
<ellipse fill="#d3d247" stroke="#000000" cx="504" cy="-978.4" rx="58.4435" ry="18"></ellipse>
<text text-anchor="middle" x="504" y="-974.2" font-family="Times,serif" font-size="14.00" fill="#000000">cell.center.x</text>
</g><g id="edge28" class="edge">
<title>RandT_or_Mech_motion_strength_global_0-&gt;Event_3715702343552547593</title>
<path fill="none" stroke="#112c5f" stroke-width="2" d="M331.4891,-783.4926C352.0039,-781.5878 373.0965,-779.799 393,-778.4 434.9341,-775.4525 540.9026,-779.2412 582,-770.4 611.7321,-764.0038 642.9402,-752.978 670.5861,-741.5544"></path>
<polygon fill="#112c5f" stroke="#112c5f" stroke-width="2" points="671.9572,-744.7747 679.8178,-737.6711 669.243,-738.3223 671.9572,-744.7747"></polygon>
</g>
<!-- cell_center_0&#45;&gt;cell_center_x_0 -->
<g id="edge32" class="edge">
<title>cell_center_0-&gt;cell_center_x_0</title>
<path fill="none" stroke="#38568c" stroke-dasharray="5,2" d="M733.6685,-1055.2697C677.8751,-1050.6302 595.1989,-1041.9038 566,-1029.2 548.3909,-1021.5387 531.7502,-1007.3753 520.1507,-995.9462"></path>
</g>
<!-- cell_center_y_0 -->
<g id="node10" class="node">
<title>cell_center_y_0</title>
<ellipse fill="#d3d247" stroke="#000000" cx="370" cy="-978.4" rx="58.4435" ry="18"></ellipse>
<text text-anchor="middle" x="370" y="-974.2" font-family="Times,serif" font-size="14.00" fill="#000000">cell.center.y</text>
</g>
<!-- cell_center_0&#45;&gt;cell_center_y_0 -->
<g id="edge33" class="edge">
<title>cell_center_0-&gt;cell_center_y_0</title>
<path fill="none" stroke="#38568c" stroke-dasharray="5,2" d="M732.7869,-1058.2067C647.8697,-1056.0546 489.52,-1049.3894 437,-1029.2 417.9245,-1021.8671 399.675,-1007.3617 387.053,-995.7218"></path>
</g>
<!-- NeighborhoodReporter_2935424596247476088 -->
<g id="node24" class="node">
<title>NeighborhoodReporter_2935424596247476088</title>
<g id="a_node24">">
<polygon fill="#fffea3" stroke="transparent" points="1391.5,-924.4 1244.5,-924.4 1244.5,-850.4 1391.5,-850.4 1391.5,-924.4"></polygon>
<text text-anchor="start" x="1248.9375" y="-906.9" font-family="times" font-size="15.00" fill="#000000">NeighborhoodReporter</text>
<text text-anchor="start" x="1256.1525" y="-883.9" font-family="times" font-style="italic" font-size="15.00" fill="#000000">"neighbor_center_x"</text>
<text text-anchor="start" x="1314.75" y="-858.9" font-family="times" font-size="15.00" fill="#000000">1</text>
<polygon fill="#000000" stroke="#000000" points="1245,-875.4 1245,-875.4 1392,-875.4 1392,-875.4 1245,-875.4"></polygon>
<polygon fill="none" stroke="#000000" points="1244.5,-850.4 1244.5,-924.4 1391.5,-924.4 1391.5,-850.4 1244.5,-850.4"></polygon>
</g>
</g>
<!-- cell_center_x_0&#45;&gt;NeighborhoodReporter_2935424596247476088 -->
<g id="edge47" class="edge">
<title>cell_center_x_0-&gt;NeighborhoodReporter_2935424596247476088</title>
<path fill="none" stroke="#112c5f" stroke-width="2" d="M544.0437,-965.3278C551.285,-963.3795 558.8173,-961.619 566,-960.4 856.7013,-911.0624 944.2897,-993.05 1234.2818,-924.5458"></path>
<polygon fill="#112c5f" stroke="#112c5f" stroke-width="2" points="1235.3362,-927.8921 1244.2419,-922.1529 1233.7009,-921.0858 1235.3362,-927.8921"></polygon>
</g>
<!-- NeighborhoodReporter_11546882034193711143 -->
<g id="node29" class="node">
<title>NeighborhoodReporter_11546882034193711143</title>
<g id="a_node29">">
<polygon fill="#fffea3" stroke="transparent" points="1226.5,-924.4 1079.5,-924.4 1079.5,-850.4 1226.5,-850.4 1226.5,-924.4"></polygon>
<text text-anchor="start" x="1083.9375" y="-906.9" font-family="times" font-size="15.00" fill="#000000">NeighborhoodReporter</text>
<text text-anchor="start" x="1091.1525" y="-883.9" font-family="times" font-style="italic" font-size="15.00" fill="#000000">"neighbor_center_y"</text>
<text text-anchor="start" x="1149.75" y="-858.9" font-family="times" font-size="15.00" fill="#000000">1</text>
<polygon fill="#000000" stroke="#000000" points="1080,-875.4 1080,-875.4 1227,-875.4 1227,-875.4 1080,-875.4"></polygon>
<polygon fill="none" stroke="#000000" points="1079.5,-850.4 1079.5,-924.4 1226.5,-924.4 1226.5,-850.4 1079.5,-850.4"></polygon>
</g>
</g>
<!-- cell_center_y_0&#45;&gt;NeighborhoodReporter_11546882034193711143 -->
<g id="edge51" class="edge">
<title>cell_center_y_0-&gt;NeighborhoodReporter_11546882034193711143</title>
<path fill="none" stroke="#112c5f" stroke-width="2" d="M411.8875,-965.7321C420.1456,-963.6371 428.795,-961.7207 437,-960.4 712.3798,-916.0751 794.9464,-989.8029 1069.3947,-924.5234"></path>
<polygon fill="#112c5f" stroke="#112c5f" stroke-width="2" points="1070.3425,-927.8952 1079.2393,-922.1421 1068.6967,-921.0914 1070.3425,-927.8952"></polygon>
</g>
<!-- cell_count_0 -->
<g id="edge46" class="edge">
<title>cell_center_x_0-&gt;Logger_4949326139567608441</title>
<path fill="none" stroke="#112c5f" stroke-width="2" d="M480.0958,-961.9206C467.1895,-953.023 450.5971,-941.5844 434.3059,-930.3533"></path>
<polygon fill="#112c5f" stroke="#112c5f" stroke-width="2" points="436.0549,-927.308 425.8352,-924.5137 432.0818,-933.0712 436.0549,-927.308"></polygon>
</g>
<!-- PyMapper_5610331430625284783 -->
<g id="node31" class="node">
<title>PyMapper_5610331430625284783</title>
<g id="a_node31">">
<polygon fill="#fffea3" stroke="transparent" points="1649.5,-737.6 1414.5,-737.6 1414.5,-663.6 1649.5,-663.6 1649.5,-737.6"></polygon>
<text text-anchor="start" x="1501.2588" y="-720.1" font-family="times" font-size="15.00" fill="#000000">PyMapper</text>
<text text-anchor="start" x="1418.6883" y="-697.1" font-family="times" font-style="italic" font-size="15.00" fill="#000000">"Code for multi-neighbour collisions"</text>
<text text-anchor="start" x="1528.75" y="-672.1" font-family="times" font-size="15.00" fill="#000000">1</text>
<polygon fill="#000000" stroke="#000000" points="1415,-688.6 1415,-688.6 1650,-688.6 1650,-688.6 1415,-688.6"></polygon>
<polygon fill="none" stroke="#000000" points="1414.5,-663.6 1414.5,-737.6 1649.5,-737.6 1649.5,-663.6 1414.5,-663.6"></polygon>
</g>
</g>
<!-- cell_count_0&#45;&gt;PyMapper_5610331430625284783 -->

<!-- celltype_cell_size_0 -->
<g id="edge50" class="edge">
<title>cell_center_y_0-&gt;Logger_4949326139567608441</title>
<path fill="none" stroke="#112c5f" stroke-width="2" d="M370.4047,-959.9848C370.5673,-952.589 370.7628,-943.6921 370.9604,-934.7013"></path>
<polygon fill="#112c5f" stroke="#112c5f" stroke-width="2" points="374.4621,-934.66 371.1827,-924.5855 367.4638,-934.5061 374.4621,-934.66"></polygon>
</g>
<!-- celltype_cell_size_0&#45;&gt;cell_count_0 -->

<!-- color_0 -->
<g id="node12" class="node">
<title>color_0</title>
<ellipse fill="#d3d247" stroke="#000000" cx="2410" cy="-504.6" rx="30.7716" ry="18"></ellipse>
<ellipse fill="none" stroke="#000000" cx="2410" cy="-504.6" rx="34.7577" ry="22"></ellipse>
<text text-anchor="middle" x="2410" y="-500.4" font-family="Times,serif" font-size="14.00" fill="#000000">color</text>
</g>
<!-- color_0&#45;&gt;Gnuplotter_0_1 -->
<g id="edge59" class="edge">
<title>color_0-&gt;Gnuplotter_0_1</title>
<path fill="none" stroke="#112c5f" stroke-width="2" d="M2410,-482.4654C2410,-466.2682 2410,-443.9543 2410,-425.2818"></path>
<polygon fill="#112c5f" stroke="#112c5f" stroke-width="2" points="2413.5001,-425.0643 2410,-415.0644 2406.5001,-425.0644 2413.5001,-425.0643"></polygon>
</g>
<!-- directed_motion_strength_global_0 -->
<g id="node13" class="node">
<title>directed_motion_strength_global_0</title>
<g id="a_node13">
<ellipse fill="#d3d247" stroke="#000000" cx="2058" cy="-796.4" rx="139.4711" ry="18"></ellipse>
<text text-anchor="middle" x="2058" y="-792.2" font-family="Times,serif" font-size="14.00" fill="#000000">directed_motion_strength_global</text>
</g>
</g>
<!-- Event_4909293372181341941 -->

<!-- directed_motion_strength_global_0&#45;&gt;Event_4909293372181341941 -->
<g id="node63" class="node">
<title>Event_13827901606324735539</title>
<g id="a_node63">">
<polygon fill="#fffea3" stroke="transparent" points="1396,-737.6 1068,-737.6 1068,-663.6 1396,-663.6 1396,-737.6"></polygon>
<text text-anchor="start" x="1214.5048" y="-720.1" font-family="times" font-size="15.00" fill="#000000">Event</text>
<text text-anchor="start" x="1071.5578" y="-697.1" font-family="times" font-style="italic" font-size="15.00" fill="#000000">"After 20 time steps, set the properties of axial cells."</text>
<text text-anchor="start" x="1222.625" y="-672.1" font-family="times" font-size="15.00" fill="#000000">0.1</text>
<polygon fill="#000000" stroke="#000000" points="1068,-688.6 1068,-688.6 1396,-688.6 1396,-688.6 1068,-688.6"></polygon>
<polygon fill="none" stroke="#000000" points="1068,-663.6 1068,-737.6 1396,-737.6 1396,-663.6 1068,-663.6"></polygon>
</g>
</g>
<!-- max_angle_0 -->
<g id="node14" class="node">
<title>max_angle_0</title>
<g id="a_node14">
<ellipse fill="#d3d247" stroke="#000000" cx="2456" cy="-796.4" rx="53.3129" ry="18"></ellipse>
<text text-anchor="middle" x="2456" y="-792.2" font-family="Times,serif" font-size="14.00" fill="#000000">max_angle</text>
</g>
</g><g id="edge65" class="edge">
<title>directed_motion_strength_global_0-&gt;Event_13827901606324735539</title>
<path fill="none" stroke="#112c5f" stroke-width="2" d="M1963.3759,-783.1609C1946.624,-781.2437 1929.3221,-779.537 1913,-778.4 1856.1309,-774.4384 1455.8169,-781.9871 1400,-770.4 1370.9539,-764.3703 1340.6065,-753.3691 1313.8228,-741.8561"></path>
<polygon fill="#112c5f" stroke="#112c5f" stroke-width="2" points="1315.0694,-738.5811 1304.5057,-737.7698 1312.2578,-744.9917 1315.0694,-738.5811"></polygon>
</g>
<!-- max_angle_0&#45;&gt;PyMapper_5610331430625284783 -->
<g id="edge68" class="edge">
<title>max_angle_0-&gt;PyMapper_5610331430625284783</title>
<path fill="none" stroke="#112c5f" stroke-width="2" d="M2417.995,-783.6112C2410.1467,-781.4687 2401.8722,-779.5652 2394,-778.4 2316.5059,-766.9295 1765.5373,-787.1014 1689,-770.4 1661.6165,-764.4246 1633.1842,-753.4324 1608.1619,-741.9112"></path>
<polygon fill="#112c5f" stroke="#112c5f" stroke-width="2" points="1609.6444,-738.7407 1599.1057,-737.6509 1606.6646,-745.0748 1609.6444,-738.7407"></polygon>
</g>
<!-- min_push_velocity_0 -->
<g id="node15" class="node">
<title>min_push_velocity_0</title>
<g id="a_node15">
<ellipse fill="#d3d247" stroke="#000000" cx="2300" cy="-796.4" rx="85.1372" ry="18"></ellipse>
<text text-anchor="middle" x="2300" y="-792.2" font-family="Times,serif" font-size="14.00" fill="#000000">min_push_velocity</text>
</g>
</g>
<!-- min_push_velocity_0&#45;&gt;PyMapper_5610331430625284783 -->
<g id="edge72" class="edge">
<title>min_push_velocity_0-&gt;PyMapper_5610331430625284783</title>
<path fill="none" stroke="#112c5f" stroke-width="2" d="M2240.8103,-783.4478C2229.3157,-781.392 2217.3224,-779.5627 2206,-778.4 2148.8492,-772.5309 1745.1051,-782.7641 1689,-770.4 1661.8781,-764.423 1633.7174,-753.561 1608.8611,-742.1578"></path>
<polygon fill="#112c5f" stroke="#112c5f" stroke-width="2" points="1610.0455,-738.8475 1599.5055,-737.77 1607.073,-745.185 1610.0455,-738.8475"></polygon>
</g>
<!-- pushing_mode_0 -->

<!-- pushing_mode_0&#45;&gt;PyMapper_5610331430625284783 -->

<!-- run_duration_adjustment_0 -->
<g id="node16" class="node">
<title>run_duration_adjustment_0</title>
<g id="a_node16">
<ellipse fill="#d3d247" stroke="#000000" cx="2025" cy="-504.6" rx="108.2511" ry="18"></ellipse>
<text text-anchor="middle" x="2025" y="-500.4" font-family="Times,serif" font-size="14.00" fill="#000000">run_duration_adjustment</text>
</g>
</g>
<!-- Event_6519872361270148854 -->
<g id="node61" class="node">
<title>Event_6519872361270148854</title>
<g id="a_node61">">
<polygon fill="#fffea3" stroke="transparent" points="1419.5,-426.8 1298.5,-426.8 1298.5,-352.8 1419.5,-352.8 1419.5,-426.8"></polygon>
<text text-anchor="start" x="1342.0048" y="-409.3" font-family="times" font-size="15.00" fill="#000000">Event</text>
<text text-anchor="start" x="1302.971" y="-386.3" font-family="times" font-style="italic" font-size="15.00" fill="#000000">"Run and Tumble"</text>
<text text-anchor="start" x="1355.75" y="-361.3" font-family="times" font-size="15.00" fill="#000000">5</text>
<polygon fill="#000000" stroke="#000000" points="1299,-377.8 1299,-377.8 1420,-377.8 1420,-377.8 1299,-377.8"></polygon>
<polygon fill="none" stroke="#000000" points="1298.5,-352.8 1298.5,-426.8 1419.5,-426.8 1419.5,-352.8 1298.5,-352.8"></polygon>
</g>
</g>
<!-- run_duration_adjustment_0&#45;&gt;Event_6519872361270148854 -->
<g id="edge79" class="edge">
<title>run_duration_adjustment_0-&gt;Event_6519872361270148854</title>
<path fill="none" stroke="#112c5f" stroke-width="2" d="M1984.2709,-487.841C1963.3525,-480.0883 1937.2288,-471.702 1913,-467.6 1886.2109,-463.0645 1448.8236,-470.6461 1424,-459.6 1411.4622,-454.0209 1400.2301,-444.7389 1390.7722,-434.7362"></path>
<polygon fill="#112c5f" stroke="#112c5f" stroke-width="2" points="1393.1524,-432.1457 1383.8933,-426.996 1387.9201,-436.7957 1393.1524,-432.1457"></polygon>
</g>
<!-- time_0 -->
<g id="node17" class="node">
<title>time_0</title>
<g id="a_node17">
<ellipse fill="#d3d247" stroke="#000000" cx="430" cy="-796.4" rx="28.4069" ry="18"></ellipse>
<text text-anchor="middle" x="430" y="-792.2" font-family="Times,serif" font-size="14.00" fill="#000000">time</text>
</g>
</g>
<!-- time_0&#45;&gt;CellDeath_3163870799875249706 -->
<g id="edge81" class="edge">
<title>time_0-&gt;CellDeath_3163870799875249706</title>
<path fill="none" stroke="#112c5f" stroke-width="2" d="M450.9291,-784.2755C456.0295,-781.8743 461.5811,-779.6967 467,-778.4 492.4519,-772.3094 914.356,-781.6184 938,-770.4 949.764,-764.8183 960.0486,-755.6427 968.5934,-745.7508"></path>
<polygon fill="#112c5f" stroke="#112c5f" stroke-width="2" points="971.5168,-747.7011 975.0682,-737.7192 966.0671,-743.3078 971.5168,-747.7011"></polygon>
</g>
<!-- time_0&#45;&gt;Event_6519872361270148854 -->
<g id="edge84" class="edge">
<title>time_0-&gt;Event_6519872361270148854</title>
<path fill="none" stroke="#112c5f" stroke-width="2" d="M430.9682,-778.3329C435.1376,-720.8275 456.7623,-541.5004 566,-467.6 582.7734,-456.2526 1276.5076,-467.8548 1295,-459.6 1307.4421,-454.046 1318.5357,-444.7729 1327.85,-434.7706"></path>
<polygon fill="#112c5f" stroke="#112c5f" stroke-width="2" points="1330.6712,-436.8613 1334.6187,-427.0293 1325.4015,-432.2537 1330.6712,-436.8613"></polygon>
</g>
<!-- time_0&#45;&gt;Event_1365485953541288460 -->
<g id="edge83" class="edge">
<title>time_0-&gt;Event_3715702343552547593</title>
<path fill="none" stroke="#112c5f" stroke-width="2" d="M451.3742,-784.296C456.3633,-781.9573 461.755,-779.8015 467,-778.4 516.4979,-765.1733 532.0622,-781.8545 582,-770.4 611.0879,-763.7279 641.6602,-752.8813 668.9222,-741.7063"></path>
<polygon fill="#112c5f" stroke="#112c5f" stroke-width="2" points="670.5364,-744.8253 678.4191,-737.7462 667.8423,-738.3645 670.5364,-744.8253"></polygon>
</g>
<!-- time_0&#45;&gt;Event_4909293372181341941 -->
<g id="edge82" class="edge">
<title>time_0-&gt;Event_13827901606324735539</title>
<path fill="none" stroke="#112c5f" stroke-width="2" d="M450.9257,-784.2614C456.0263,-781.8608 461.5788,-779.687 467,-778.4 531.5453,-763.0767 999.0308,-783.8128 1064,-770.4 1093.1911,-764.3736 1123.6909,-753.3046 1150.5675,-741.7299"></path>
<polygon fill="#112c5f" stroke="#112c5f" stroke-width="2" points="1152.1681,-744.8497 1159.9149,-737.6221 1149.3518,-738.4412 1152.1681,-744.8497"></polygon>
</g>
<!-- velocity_0 -->
<g id="node18" class="node">
<title>velocity_0</title>
<ellipse fill="#b5b426" stroke="#000000" cx="127" cy="-1059.2" rx="42.2804" ry="18"></ellipse>
<ellipse fill="none" stroke="#000000" cx="127" cy="-1059.2" rx="46.2932" ry="22"></ellipse>
<text text-anchor="middle" x="127" y="-1055" font-family="Times,serif" font-size="14.00" fill="#000000">velocity</text>
</g>
<!-- velocity_0&#45;&gt;velocity_0 -->
<g id="edge87" class="edge">
<title>velocity_0-&gt;velocity_0</title>
<path fill="none" stroke="#38568c" stroke-dasharray="5,2" d="M161.6442,-1073.9354C177.4269,-1075.4399 191.1464,-1070.5281 191.1464,-1059.2 191.1464,-1047.8719 177.4269,-1042.9601 161.6442,-1044.4646"></path>
</g>
<!-- velocity_x_0 -->
<g id="node19" class="node">
<title>velocity_x_0</title>
<ellipse fill="#d3d247" stroke="#000000" cx="127" cy="-978.4" rx="49.2784" ry="18"></ellipse>
<text text-anchor="middle" x="127" y="-974.2" font-family="Times,serif" font-size="14.00" fill="#000000">velocity.x</text>
</g>
<!-- velocity_0&#45;&gt;velocity_x_0 -->
<g id="edge88" class="edge">
<title>velocity_0-&gt;velocity_x_0</title>
<path fill="none" stroke="#38568c" stroke-dasharray="5,2" d="M127,-1037.121C127,-1024.4117 127,-1008.6334 127,-996.6338"></path>
</g>
<!-- velocity_y_0 -->
<g id="node20" class="node">
<title>velocity_y_0</title>
<ellipse fill="#d3d247" stroke="#000000" cx="244" cy="-978.4" rx="49.2784" ry="18"></ellipse>
<text text-anchor="middle" x="244" y="-974.2" font-family="Times,serif" font-size="14.00" fill="#000000">velocity.y</text>
</g>
<!-- velocity_0&#45;&gt;velocity_y_0 -->
<g id="edge89" class="edge">
<title>velocity_0-&gt;velocity_y_0</title>
<path fill="none" stroke="#38568c" stroke-dasharray="5,2" d="M160.2837,-1043.674C168.5776,-1039.3517 177.2968,-1034.4036 185,-1029.2 199.8969,-1019.137 215.2399,-1005.8185 226.5445,-995.3433"></path>
</g>
<!-- NeighborhoodReporter_8799129014052462958 -->
<g id="node28" class="node">
<title>NeighborhoodReporter_8799129014052462958</title>
<g id="a_node28">">
<polygon fill="#fffea3" stroke="transparent" points="875.5,-924.4 728.5,-924.4 728.5,-850.4 875.5,-850.4 875.5,-924.4"></polygon>
<text text-anchor="start" x="732.9375" y="-906.9" font-family="times" font-size="15.00" fill="#000000">NeighborhoodReporter</text>
<text text-anchor="start" x="734.31" y="-883.9" font-family="times" font-style="italic" font-size="15.00" fill="#000000">"neighbor_velocity_x"</text>
<text text-anchor="start" x="798.75" y="-858.9" font-family="times" font-size="15.00" fill="#000000">1</text>
<polygon fill="#000000" stroke="#000000" points="729,-875.4 729,-875.4 876,-875.4 876,-875.4 729,-875.4"></polygon>
<polygon fill="none" stroke="#000000" points="728.5,-850.4 728.5,-924.4 875.5,-924.4 875.5,-850.4 728.5,-850.4"></polygon>
</g>
</g>
<!-- velocity_x_0&#45;&gt;NeighborhoodReporter_8799129014052462958 -->
<g id="edge91" class="edge">
<title>velocity_x_0-&gt;NeighborhoodReporter_8799129014052462958</title>
<path fill="none" stroke="#112c5f" stroke-width="2" d="M163.1863,-965.9384C170.6533,-963.7705 178.5217,-961.7741 186,-960.4 416.6427,-918.0214 487.2697,-980.4196 718.1798,-924.5845"></path>
<polygon fill="#112c5f" stroke="#112c5f" stroke-width="2" points="719.3596,-927.8984 728.23,-922.1047 717.6827,-921.1022 719.3596,-927.8984"></polygon>
</g>
<!-- NeighborhoodReporter_13727688377437822175 -->
<g id="node30" class="node">
<title>NeighborhoodReporter_13727688377437822175</title>
<g id="a_node30">">
<polygon fill="#fffea3" stroke="transparent" points="1061.5,-924.4 914.5,-924.4 914.5,-850.4 1061.5,-850.4 1061.5,-924.4"></polygon>
<text text-anchor="start" x="918.9375" y="-906.9" font-family="times" font-size="15.00" fill="#000000">NeighborhoodReporter</text>
<text text-anchor="start" x="920.31" y="-883.9" font-family="times" font-style="italic" font-size="15.00" fill="#000000">"neighbor_velocity_y"</text>
<text text-anchor="start" x="984.75" y="-858.9" font-family="times" font-size="15.00" fill="#000000">1</text>
<polygon fill="#000000" stroke="#000000" points="915,-875.4 915,-875.4 1062,-875.4 1062,-875.4 915,-875.4"></polygon>
<polygon fill="none" stroke="#000000" points="914.5,-850.4 914.5,-924.4 1061.5,-924.4 1061.5,-850.4 914.5,-850.4"></polygon>
</g>
</g>
<!-- velocity_y_0&#45;&gt;NeighborhoodReporter_13727688377437822175 -->
<g id="edge92" class="edge">
<title>velocity_y_0-&gt;NeighborhoodReporter_13727688377437822175</title>
<path fill="none" stroke="#112c5f" stroke-width="2" d="M279.8651,-965.9976C287.426,-963.7967 295.4125,-961.7724 303,-960.4 558.0227,-914.2713 631.1774,-976.7309 885,-924.4 891.5016,-923.0596 898.147,-921.3958 904.7759,-919.5221"></path>
<polygon fill="#112c5f" stroke="#112c5f" stroke-width="2" points="905.8719,-922.8477 914.4575,-916.6397 903.8745,-916.1387 905.8719,-922.8477"></polygon>
</g>
<!-- MotilityReporter_10985171421200206384 -->
<g id="node21" class="node">
<title>MotilityReporter_10985171421200206384</title>
<g id="a_node21">">
<polygon fill="#fffea3" stroke="transparent" points="1728.5,-924.4 1409.5,-924.4 1409.5,-850.4 1728.5,-850.4 1728.5,-924.4"></polygon>
<text text-anchor="start" x="1518.674" y="-906.9" font-family="times" font-size="15.00" fill="#000000">MotilityReporter</text>
<text text-anchor="start" x="1413.6343" y="-883.9" font-family="times" font-style="italic" font-size="15.00" fill="#000000">"Used for computing mechanics, needs time-step 1"</text>
<text text-anchor="start" x="1565.75" y="-858.9" font-family="times" font-size="15.00" fill="#000000">1</text>
<polygon fill="#000000" stroke="#000000" points="1410,-875.4 1410,-875.4 1729,-875.4 1729,-875.4 1410,-875.4"></polygon>
<polygon fill="none" stroke="#000000" points="1409.5,-850.4 1409.5,-924.4 1728.5,-924.4 1728.5,-850.4 1409.5,-850.4"></polygon>
</g>
</g>
<!-- displacement_2 -->
<g id="node39" class="node">
<title>cell_center_x_1</title>
<g id="a_node39">
<ellipse fill="#d3d247" stroke="#000000" cx="1818" cy="-796.4" rx="63.0996" ry="18"></ellipse>
<text text-anchor="middle" x="1818" y="-792.2" font-family="Times,serif" font-size="14.00" fill="#000000">cell_center_x</text>
</g>
</g>
<!-- MotilityReporter_10985171421200206384&#45;&gt;displacement_2 -->
<g id="edge15" class="edge">
<title>Mapper_17359335164138667687-&gt;cell_center_x_1</title>
<path fill="none" stroke="#8f100d" stroke-width="3" d="M1811.3555,-850.3868C1811.1389,-841.7649 1811.2559,-832.7214 1811.7063,-824.5547"></path>
<polygon fill="#8f100d" stroke="#8f100d" stroke-width="3" points="1815.2075,-824.6736 1812.4906,-814.433 1808.2284,-824.1327 1815.2075,-824.6736"></polygon>
</g>
<!-- velocity_2 -->

<!-- MotilityReporter_10985171421200206384&#45;&gt;velocity_2 -->
<g id="node40" class="node">
<title>cell_center_y_1</title>
<g id="a_node40">
<ellipse fill="#d3d247" stroke="#000000" cx="763" cy="-796.4" rx="63.0996" ry="18"></ellipse>
<text text-anchor="middle" x="763" y="-792.2" font-family="Times,serif" font-size="14.00" fill="#000000">cell_center_y</text>
</g>
</g>
<!-- Mapper_17359335164138667687 -->
<g id="node22" class="node">
<title>Mapper_17359335164138667687</title>
<g id="a_node22">">
<polygon fill="#fffea3" stroke="transparent" points="1868.5,-924.4 1767.5,-924.4 1767.5,-850.4 1868.5,-850.4 1868.5,-924.4"></polygon>
<text text-anchor="start" x="1795.178" y="-906.9" font-family="times" font-size="15.00" fill="#000000">Mapper</text>
<text text-anchor="start" x="1771.9858" y="-883.9" font-family="times" font-style="italic" font-size="15.00" fill="#000000">"cell_center_x"</text>
<text text-anchor="start" x="1814.75" y="-858.9" font-family="times" font-size="15.00" fill="#000000">1</text>
<polygon fill="#000000" stroke="#000000" points="1768,-875.4 1768,-875.4 1869,-875.4 1869,-875.4 1768,-875.4"></polygon>
<polygon fill="none" stroke="#000000" points="1767.5,-850.4 1767.5,-924.4 1868.5,-924.4 1868.5,-850.4 1767.5,-850.4"></polygon>
</g>
</g><g id="edge14" class="edge">
<title>Mapper_11329759407116316701-&gt;cell_center_y_1</title>
<path fill="none" stroke="#8f100d" stroke-width="3" d="M695.2495,-850.3868C706.7311,-840.0127 719.3863,-829.0282 730.6552,-819.6951"></path>
<polygon fill="#8f100d" stroke="#8f100d" stroke-width="3" points="733.0481,-822.2599 738.5792,-813.2234 728.6201,-816.8383 733.0481,-822.2599"></polygon>
</g>
<!-- cell_center_x_2 -->
<g id="node50" class="node">
<title>neighbor_center_x_1</title>
<g id="a_node50">
<ellipse fill="#d3d247" stroke="#000000" cx="1512" cy="-796.4" rx="83.3732" ry="18"></ellipse>
<text text-anchor="middle" x="1512" y="-792.2" font-family="Times,serif" font-size="14.00" fill="#000000">neighbor_center_x</text>
</g>
</g>
<!-- Mapper_17359335164138667687&#45;&gt;cell_center_x_2 -->
<g id="edge21" class="edge">
<title>NeighborhoodReporter_2935424596247476088-&gt;neighbor_center_x_1</title>
<path fill="none" stroke="#8f100d" stroke-width="3" d="M1391.6197,-852.867C1417.2246,-840.8565 1445.1408,-827.7618 1467.6382,-817.2089"></path>
<polygon fill="#8f100d" stroke="#8f100d" stroke-width="3" points="1469.3585,-820.2679 1476.9256,-812.8524 1466.3857,-813.9305 1469.3585,-820.2679"></polygon>
</g>
<!-- neighbor_center_x_2 -->
<g id="node51" class="node">
<title>neighbor_center_y_1</title>
<g id="a_node51">
<ellipse fill="#d3d247" stroke="#000000" cx="1327" cy="-796.4" rx="83.3732" ry="18"></ellipse>
<text text-anchor="middle" x="1327" y="-792.2" font-family="Times,serif" font-size="14.00" fill="#000000">neighbor_center_y</text>
</g>
</g>
<!-- NeighborhoodReporter_2935424596247476088&#45;&gt;neighbor_center_x_2 -->
<g id="edge19" class="edge">
<title>NeighborhoodReporter_11546882034193711143-&gt;neighbor_center_y_1</title>
<path fill="none" stroke="#8f100d" stroke-width="3" d="M1223.7725,-850.3868C1244.8606,-839.358 1267.2675,-827.6394 1285.7974,-817.9485"></path>
<polygon fill="#8f100d" stroke="#8f100d" stroke-width="3" points="1287.5929,-820.9593 1294.8322,-813.2234 1284.3488,-814.7564 1287.5929,-820.9593"></polygon>
</g>
<!-- neighbor_center_y_2 -->
<g id="node52" class="node">
<title>neighbor_velocity_x_1</title>
<g id="a_node52">
<ellipse fill="#d3d247" stroke="#000000" cx="935" cy="-796.4" rx="90.9186" ry="18"></ellipse>
<text text-anchor="middle" x="935" y="-792.2" font-family="Times,serif" font-size="14.00" fill="#000000">neighbor_velocity_x</text>
</g>
</g>
<!-- NeighborhoodReporter_11546882034193711143&#45;&gt;neighbor_center_y_2 -->
<g id="edge22" class="edge">
<title>NeighborhoodReporter_8799129014052462958-&gt;neighbor_velocity_x_1</title>
<path fill="none" stroke="#8f100d" stroke-width="3" d="M856.0962,-850.3868C871.3169,-839.9727 887.4363,-828.9436 901.1108,-819.5873"></path>
<polygon fill="#8f100d" stroke="#8f100d" stroke-width="3" points="903.4332,-822.2392 909.7099,-813.7038 899.4804,-816.4621 903.4332,-822.2392"></polygon>
</g>
<!-- neighbor_velocity_x_2 -->
<g id="node53" class="node">
<title>neighbor_velocity_y_1</title>
<g id="a_node53">
<ellipse fill="#d3d247" stroke="#000000" cx="1135" cy="-796.4" rx="90.9186" ry="18"></ellipse>
<text text-anchor="middle" x="1135" y="-792.2" font-family="Times,serif" font-size="14.00" fill="#000000">neighbor_velocity_y</text>
</g>
</g>
<!-- NeighborhoodReporter_8799129014052462958&#45;&gt;neighbor_velocity_x_2 -->
<g id="edge20" class="edge">
<title>NeighborhoodReporter_13727688377437822175-&gt;neighbor_velocity_y_1</title>
<path fill="none" stroke="#8f100d" stroke-width="3" d="M1047.7905,-850.3868C1064.9338,-839.7743 1083.1087,-828.5232 1098.4043,-819.0545"></path>
<polygon fill="#8f100d" stroke="#8f100d" stroke-width="3" points="1100.3873,-821.9433 1107.0477,-813.7038 1096.7028,-815.9914 1100.3873,-821.9433"></polygon>
</g>
<!-- neighbor_velocity_y_2 -->

<!-- NeighborhoodReporter_13727688377437822175&#45;&gt;neighbor_velocity_y_2 -->
<g id="node48" class="node">
<title>mech_induced_dir_1</title>
<g id="a_node48">
<ellipse fill="#b5b426" stroke="#000000" cx="1538" cy="-389.8" rx="82.811" ry="18"></ellipse>
<text text-anchor="middle" x="1538" y="-385.6" font-family="Times,serif" font-size="14.00" fill="#000000">mech_induced_dir</text>
</g>
</g>
<!-- VectorEquation_15961749812448151380 -->
<g id="node26" class="node">
<title>VectorEquation_15961749812448151380</title>
<g id="a_node26">">
<polygon fill="#fffea3" stroke="transparent" points="1642,-541.6 1540,-541.6 1540,-467.6 1642,-467.6 1642,-541.6"></polygon>
<text text-anchor="start" x="1543.5168" y="-524.1" font-family="times" font-size="15.00" fill="#000000">VectorEquation</text>
<text text-anchor="start" x="1548.8485" y="-501.1" font-family="times" font-style="italic" font-size="15.00" fill="#000000">"build vector"</text>
<text text-anchor="start" x="1587.25" y="-476.1" font-family="times" font-size="15.00" fill="#000000">1</text>
<polygon fill="#000000" stroke="#000000" points="1540,-492.6 1540,-492.6 1642,-492.6 1642,-492.6 1540,-492.6"></polygon>
<polygon fill="none" stroke="#000000" points="1540,-467.6 1540,-541.6 1642,-541.6 1642,-467.6 1540,-467.6"></polygon>
</g>
</g><g id="edge29" class="edge">
<title>VectorEquation_15961749812448151380-&gt;mech_induced_dir_1</title>
<path fill="none" stroke="#8f100d" stroke-width="3" d="M1573.7924,-467.3277C1566.2548,-451.001 1557.5688,-432.1868 1550.6412,-417.1813"></path>
<polygon fill="#8f100d" stroke="#8f100d" stroke-width="3" points="1553.7418,-415.547 1546.3724,-407.935 1547.3864,-418.4812 1553.7418,-415.547"></polygon>
</g>
<!-- mech_induced_dir_2 -->
<g id="node27" class="node">
<title>Mapper_1_100</title>
<g id="a_node27">">
<polygon fill="#fffea3" stroke="transparent" points="1901,-627.6 1847,-627.6 1847,-577.6 1901,-577.6 1901,-627.6"></polygon>
<text text-anchor="start" x="1850.6779999999999" y="-610.1" font-family="times" font-size="15.00" fill="#000000">Mapper</text>
<text text-anchor="start" x="1862.75" y="-586.1" font-family="times" font-size="15.00" fill="#000000">100</text>
<polygon fill="#000000" stroke="#000000" points="1847,-602.6 1847,-602.6 1901,-602.6 1901,-602.6 1847,-602.6"></polygon>
<polygon fill="none" stroke="#000000" points="1847,-577.6 1847,-627.6 1901,-627.6 1901,-577.6 1847,-577.6"></polygon>
</g>
</g>
<!-- VectorEquation_15961749812448151380&#45;&gt;mech_induced_dir_2 -->
<g id="edge16" class="edge">
<title>Mapper_1_100-&gt;MSD_0</title>
<path fill="none" stroke="#8f100d" stroke-width="3" d="M1901.2352,-579.4544C1902.4774,-578.7798 1903.7344,-578.1572 1905,-577.6 2002.5106,-534.6723 2045.718,-587.2167 2142,-541.6 2149.0292,-538.2697 2155.7207,-533.3345 2161.5826,-528.1459"></path>
<polygon fill="#8f100d" stroke="#8f100d" stroke-width="3" points="2164.2055,-530.4806 2169.0158,-521.0406 2159.3686,-525.4205 2164.2055,-530.4806"></polygon>
</g>
<!-- VectorEquation_2_1 -->

<!-- dir_2 -->
<g id="node46" class="node">
<title>displacement_1</title>
<g id="a_node46">
<ellipse fill="#b5b426" stroke="#000000" cx="1675" cy="-796.4" rx="61.975" ry="18"></ellipse>
<text text-anchor="middle" x="1675" y="-792.2" font-family="Times,serif" font-size="14.00" fill="#000000">displacement</text>
</g>
</g>
<!-- VectorEquation_2_1&#45;&gt;dir_2 -->
<g id="edge17" class="edge">
<title>MotilityReporter_10985171421200206384-&gt;displacement_1</title>
<path fill="none" stroke="#8f100d" stroke-width="3" d="M1612.1143,-850.3868C1623.9898,-840.1918 1636.5518,-829.4074 1647.3001,-820.1801"></path>
<polygon fill="#8f100d" stroke="#8f100d" stroke-width="3" points="1649.8167,-822.6325 1655.1244,-813.463 1645.257,-817.3212 1649.8167,-822.6325"></polygon>
</g>
<!-- Mapper_11329759407116316701 -->
<g id="node23" class="node">
<title>Mapper_11329759407116316701</title>
<g id="a_node23">">
<polygon fill="#fffea3" stroke="transparent" points="710.5,-924.4 609.5,-924.4 609.5,-850.4 710.5,-850.4 710.5,-924.4"></polygon>
<text text-anchor="start" x="637.178" y="-906.9" font-family="times" font-size="15.00" fill="#000000">Mapper</text>
<text text-anchor="start" x="613.9858" y="-883.9" font-family="times" font-style="italic" font-size="15.00" fill="#000000">"cell_center_y"</text>
<text text-anchor="start" x="656.75" y="-858.9" font-family="times" font-size="15.00" fill="#000000">1</text>
<polygon fill="#000000" stroke="#000000" points="610,-875.4 610,-875.4 711,-875.4 711,-875.4 610,-875.4"></polygon>
<polygon fill="none" stroke="#000000" points="609.5,-850.4 609.5,-924.4 710.5,-924.4 710.5,-850.4 609.5,-850.4"></polygon>
</g>
</g><g id="node60" class="node">
<title>velocity_1</title>
<g id="a_node60">
<ellipse fill="#b5b426" stroke="#000000" cx="640" cy="-796.4" rx="42.2932" ry="18"></ellipse>
<text text-anchor="middle" x="640" y="-792.2" font-family="Times,serif" font-size="14.00" fill="#000000">velocity</text>
</g>
</g>
<!-- cell_center_y_2 -->
<g id="edge18" class="edge">
<title>MotilityReporter_10985171421200206384-&gt;velocity_1</title>
<path fill="none" stroke="#8f100d" stroke-width="3" d="M1409.4981,-851.6012C1406.6465,-851.1794 1403.8119,-850.7783 1401,-850.4 1087.8597,-808.2758 1000.9742,-875.6154 691,-814.4 687.5327,-813.7153 683.9825,-812.8427 680.4487,-811.8525"></path>
<polygon fill="#8f100d" stroke="#8f100d" stroke-width="3" points="681.2033,-808.4222 670.6155,-808.808 679.1329,-815.1091 681.2033,-808.4222"></polygon>
</g>
<!-- Mapper_11329759407116316701&#45;&gt;cell_center_y_2 -->
<g id="node25" class="node">
<title>VectorEquation_1_1</title>
<g id="a_node25">">
<polygon fill="#fffea3" stroke="transparent" points="1441,-244.8 1339,-244.8 1339,-194.8 1441,-194.8 1441,-244.8"></polygon>
<text text-anchor="start" x="1342.5168" y="-227.3" font-family="times" font-size="15.00" fill="#000000">VectorEquation</text>
<text text-anchor="start" x="1386.25" y="-203.3" font-family="times" font-size="15.00" fill="#000000">1</text>
<polygon fill="#000000" stroke="#000000" points="1339,-219.8 1339,-219.8 1441,-219.8 1441,-219.8 1339,-219.8"></polygon>
<polygon fill="none" stroke="#000000" points="1339,-194.8 1339,-244.8 1441,-244.8 1441,-194.8 1339,-194.8"></polygon>
</g>
</g>
<!-- py_angle_2 -->
<g id="node43" class="node">
<title>dir_1</title>
<g id="a_node43">
<ellipse fill="#b5b426" stroke="#000000" cx="932" cy="-140.8" rx="27" ry="18"></ellipse>
<text text-anchor="middle" x="932" y="-136.6" font-family="Times,serif" font-size="14.00" fill="#000000">dir</text>
</g>
</g>
<!-- PyMapper_5610331430625284783&#45;&gt;py_angle_2 -->
<g id="edge30" class="edge">
<title>VectorEquation_1_1-&gt;dir_1</title>
<path fill="none" stroke="#8f100d" stroke-width="3" d="M1338.8796,-214.5924C1262.1999,-206.2046 1113.1476,-187.6616 989,-158.8 981.3393,-157.019 973.2186,-154.715 965.5818,-152.3536"></path>
<polygon fill="#8f100d" stroke="#8f100d" stroke-width="3" points="966.4916,-148.9699 955.9006,-149.2555 964.3581,-155.6369 966.4916,-148.9699"></polygon>
</g>
<!-- py_induced_dir_x_2 -->
<g id="node54" class="node">
<title>py_angle_1</title>
<g id="a_node54">
<ellipse fill="#d3d247" stroke="#000000" cx="1587" cy="-602.6" rx="46.372" ry="18"></ellipse>
<text text-anchor="middle" x="1587" y="-598.4" font-family="Times,serif" font-size="14.00" fill="#000000">py_angle</text>
</g>
</g>
<!-- PyMapper_5610331430625284783&#45;&gt;py_induced_dir_x_2 -->
<g id="edge23" class="edge">
<title>PyMapper_5610331430625284783-&gt;py_angle_1</title>
<path fill="none" stroke="#8f100d" stroke-width="3" d="M1552.7931,-663.5504C1559.2398,-652.0636 1566.2102,-639.6437 1572.1662,-629.0311"></path>
<polygon fill="#8f100d" stroke="#8f100d" stroke-width="3" points="1575.2586,-630.6724 1577.1006,-620.2389 1569.1542,-627.2465 1575.2586,-630.6724"></polygon>
</g>
<!-- py_induced_dir_y_2 -->
<g id="node55" class="node">
<title>py_induced_dir_x_1</title>
<g id="a_node55">
<ellipse fill="#d3d247" stroke="#000000" cx="1362" cy="-602.6" rx="81.111" ry="18"></ellipse>
<text text-anchor="middle" x="1362" y="-598.4" font-family="Times,serif" font-size="14.00" fill="#000000">py_induced_dir_x</text>
</g>
</g>
<!-- PyMapper_5610331430625284783&#45;&gt;py_induced_dir_y_2 -->
<g id="edge24" class="edge">
<title>PyMapper_5610331430625284783-&gt;py_induced_dir_x_1</title>
<path fill="none" stroke="#8f100d" stroke-width="3" d="M1467.7303,-663.5504C1444.8997,-650.3893 1419.9442,-636.0031 1400.014,-624.5139"></path>
<polygon fill="#8f100d" stroke="#8f100d" stroke-width="3" points="1401.6477,-621.4159 1391.2361,-619.4538 1398.1517,-627.4803 1401.6477,-621.4159"></polygon>
</g>
<!-- cell_center_2 -->
<!-- Event_13827901606324735539&#45;&gt;RandT_or_Mech_motion_strength_1 -->
<g id="edge5" class="edge">
<title>Event_13827901606324735539-&gt;RandT_or_Mech_motion_strength_1</title>
<path fill="none" stroke="#8f100d" stroke-width="3" d="M1093.5734,-663.4901C1083.5662,-660.817 1073.6284,-658.1653 1064,-655.6 1021.4634,-644.2671 973.8199,-631.6389 935.7066,-621.5527"></path>
<polygon fill="#8f100d" stroke="#8f100d" stroke-width="3" points="936.2904,-618.0868 925.7278,-618.9124 934.4998,-624.8539 936.2904,-618.0868"></polygon>
</g>
<!-- Event_13827901606324735539&#45;&gt;directed_motion_strength_1 -->
<g id="edge6" class="edge">
<title>Event_13827901606324735539-&gt;directed_motion_strength_1</title>
<path fill="none" stroke="#8f100d" stroke-width="3" d="M1201.7554,-663.5504C1192.1648,-651.8019 1181.7774,-639.0773 1172.9866,-628.3086"></path>
<polygon fill="#8f100d" stroke="#8f100d" stroke-width="3" points="1175.6502,-626.0368 1166.6151,-620.5035 1170.2275,-630.4634 1175.6502,-626.0368"></polygon>
</g>
<!-- cell_center_2 -->
<g id="node64" class="node">
<title>cell_center_2</title>
<ellipse fill="#b5b426" stroke="#000000" cx="1854" cy="-1146.2" rx="50.9572" ry="18"></ellipse>
<text text-anchor="middle" x="1854" y="-1142" font-family="Times,serif" font-size="14.00" fill="#000000">cell.center</text>
</g><g id="node56" class="node">
<title>py_induced_dir_y_1</title>
<g id="a_node56">
<ellipse fill="#d3d247" stroke="#000000" cx="1733" cy="-602.6" rx="81.111" ry="18"></ellipse>
<text text-anchor="middle" x="1733" y="-598.4" font-family="Times,serif" font-size="14.00" fill="#000000">py_induced_dir_y</text>
</g>
</g>
<!-- CellDeath_3163870799875249706&#45;&gt;cell_center_2 -->
<g id="edge25" class="edge">
<title>PyMapper_5610331430625284783-&gt;py_induced_dir_y_1</title>
<path fill="none" stroke="#8f100d" stroke-width="3" d="M1607.9895,-663.5504C1635.7641,-650.0086 1666.1985,-635.1699 1690.0838,-623.5243"></path>
<polygon fill="#8f100d" stroke="#8f100d" stroke-width="3" points="1691.7732,-626.5945 1699.2279,-619.066 1688.7054,-620.3025 1691.7732,-626.5945"></polygon>
</g>
<!-- DirectedMotion_15064572531070919238 -->
<g id="node38" class="node">
<title>cell_center_1</title>
<ellipse fill="#b5b426" stroke="#000000" cx="1071" cy="-978.4" rx="50.9572" ry="18"></ellipse>
<text text-anchor="middle" x="1071" y="-974.2" font-family="Times,serif" font-size="14.00" fill="#000000">cell.center</text>
</g>
<!-- VolumeConstraint_2 -->
<g id="edge4" class="edge">
<title>CellDeath_3163870799875249706-&gt;cell_center_1</title>
<path fill="none" stroke="#8f100d" stroke-width="3" d="M975.0459,-737.6724C965.4165,-750.4276 952.8878,-763.282 938,-770.4 920.503,-778.7655 602.5556,-764.5301 589,-778.4 566.2462,-801.6813 577.7277,-901.6371 601,-924.4 667.1761,-989.1276 925.3026,-941.8817 1016,-960.4 1019.1993,-961.0532 1022.4726,-961.8307 1025.7498,-962.6903"></path>
<polygon fill="#8f100d" stroke="#8f100d" stroke-width="3" points="1024.9457,-966.1005 1035.522,-965.4737 1026.8633,-959.3682 1024.9457,-966.1005"></polygon>
</g>
<!-- RaT_dir_2 -->

<!-- RaT_dir_2&#45;&gt;VectorEquation_2_1 -->
<g id="node33" class="node">
<title>VolumeConstraint_1</title>
<g id="a_node33">">
<polygon fill="#fffea3" stroke="transparent" points="704,-75 586,-75 586,-39 704,-39 704,-75"></polygon>
<text text-anchor="start" x="589.5908" y="-52.5" font-family="times" font-size="15.00" fill="#000000">VolumeConstraint</text>
<polygon fill="none" stroke="#000000" points="586,-44 586,-70 704,-70 704,-44 586,-44"></polygon>
</g>
</g>
<!-- RandT_or_Mech_motion_strength_2 -->
<g id="node36" class="node">
<title>RaT_dir_1</title>
<g id="a_node36">
<ellipse fill="#b5b426" stroke="#000000" cx="1359" cy="-298.8" rx="43.4377" ry="18"></ellipse>
<text text-anchor="middle" x="1359" y="-294.6" font-family="Times,serif" font-size="14.00" fill="#000000">RaT_dir</text>
</g>
</g>
<!-- RandT_or_Mech_motion_strength_2&#45;&gt;DirectedMotion_15064572531070919238 -->
<g id="edge26" class="edge">
<title>RaT_dir_1-&gt;VectorEquation_1_1</title>
<path fill="none" stroke="#112c5f" stroke-width="2" d="M1366.0344,-280.8737C1369.1368,-272.9674 1372.892,-263.3978 1376.5001,-254.2029"></path>
<polygon fill="#112c5f" stroke="#112c5f" stroke-width="2" points="1379.7786,-255.4294 1380.1734,-244.8419 1373.2624,-252.8723 1379.7786,-255.4294"></polygon>
</g>
<!-- cell_center_2&#45;&gt;cell_center_0 -->

<!-- cell_center_2&#45;&gt;cell_center_0 -->
<g id="edge45" class="edge">
<title>cell_center_2-&gt;cell_center_0</title>
<path fill="none" stroke="#38568c" stroke-dasharray="5,2" d="M1829.4798,-1130.393C1820.2806,-1125.2516 1809.5039,-1120.1214 1799,-1117.2 1706.8464,-1091.57 1040.7566,-1067.6014 843.1305,-1060.9914"></path>
</g><g id="node37" class="node">
<title>RandT_or_Mech_motion_strength_1</title>
<g id="a_node37">
<ellipse fill="#d3d247" stroke="#000000" cx="864" cy="-602.6" rx="145.2755" ry="18"></ellipse>
<text text-anchor="middle" x="864" y="-598.4" font-family="Times,serif" font-size="14.00" fill="#000000">RandT_or_Mech_motion_strength</text>
</g>
</g>
<!-- cell_center_2&#45;&gt;MotilityReporter_10985171421200206384 -->
<g id="edge27" class="edge">
<title>RandT_or_Mech_motion_strength_1-&gt;DirectedMotion_11268721651180447268</title>
<path fill="none" stroke="#112c5f" stroke-width="2" d="M864,-584.3821C864,-547.6022 864,-461.8417 864,-389.8 864,-389.8 864,-389.8 864,-219.8 864,-175.806 864,-125.1247 864,-92.1525"></path>
<polygon fill="#112c5f" stroke="#112c5f" stroke-width="2" points="867.5001,-92.1004 864,-82.1004 860.5001,-92.1005 867.5001,-92.1004"></polygon>
</g>
<!-- cell_center_2&#45;&gt;Mapper_17359335164138667687 -->
<g id="edge42" class="edge">
<title>cell_center_1-&gt;cell_center_0</title>
<path fill="none" stroke="#38568c" stroke-dasharray="5,2" d="M1057.0689,-995.9774C1046.9558,-1007.4204 1032.2424,-1021.5876 1016,-1029.2 986.1302,-1043.1992 899.8197,-1051.6256 842.3804,-1055.8406"></path>
</g>
<!-- cell_center_2&#45;&gt;NeighborhoodReporter_2935424596247476088 -->
<g id="edge35" class="edge">
<title>cell_center_1-&gt;Mapper_17359335164138667687</title>
<path fill="none" stroke="#112c5f" stroke-width="2" d="M1121.9808,-977.2319C1259.4014,-973.6288 1635.071,-960.6538 1753,-924.4 1754.4739,-923.9469 1755.9509,-923.4562 1757.4276,-922.9324"></path>
<polygon fill="#112c5f" stroke="#112c5f" stroke-width="2" points="1759.1524,-926.0118 1767.1319,-919.042 1756.5476,-919.5145 1759.1524,-926.0118"></polygon>
</g>
<!-- cell_center_2&#45;&gt;NeighborhoodReporter_11546882034193711143 -->
<g id="edge34" class="edge">
<title>cell_center_1-&gt;Mapper_11329759407116316701</title>
<path fill="none" stroke="#112c5f" stroke-width="2" d="M1035.1861,-965.5662C1028.8529,-963.6172 1022.277,-961.7948 1016,-960.4 886.6305,-931.6529 845.0791,-968.1961 720,-924.4 719.9025,-924.3659 719.8051,-924.3316 719.7076,-924.2971"></path>
<polygon fill="#112c5f" stroke="#112c5f" stroke-width="2" points="721.2347,-921.1395 710.6521,-920.6307 718.6077,-927.6278 721.2347,-921.1395"></polygon>
</g>
<!-- cell_center_2&#45;&gt;NeighborhoodReporter_8799129014052462958 -->
<g id="edge40" class="edge">
<title>cell_center_1-&gt;NeighborhoodReporter_2935424596247476088</title>
<path fill="none" stroke="#112c5f" stroke-width="2" d="M1110.4237,-966.8052C1142.0106,-957.2248 1187.572,-942.7576 1234.9131,-924.715"></path>
<polygon fill="#112c5f" stroke="#112c5f" stroke-width="2" points="1236.3285,-927.9205 1244.4015,-921.0591 1233.8117,-921.3886 1236.3285,-927.9205"></polygon>
</g>
<!-- cell_center_2&#45;&gt;NeighborhoodReporter_13727688377437822175 -->
<g id="edge38" class="edge">
<title>cell_center_1-&gt;NeighborhoodReporter_11546882034193711143</title>
<path fill="none" stroke="#112c5f" stroke-width="2" d="M1086.8104,-960.8543C1094.3004,-952.5423 1103.6215,-942.1981 1112.8825,-931.9206"></path>
<polygon fill="#112c5f" stroke="#112c5f" stroke-width="2" points="1115.4943,-934.2507 1119.5883,-924.4788 1110.294,-929.5647 1115.4943,-934.2507"></polygon>
</g>
<!-- cell_center_2&#45;&gt;Mapper_11329759407116316701 -->
<g id="edge41" class="edge">
<title>cell_center_1-&gt;NeighborhoodReporter_8799129014052462958</title>
<path fill="none" stroke="#112c5f" stroke-width="2" d="M1033.7833,-966.0082C1027.847,-964.0927 1021.7637,-962.1659 1016,-960.4 960.314,-943.3393 944.9426,-943.7214 890,-924.4 888.3877,-923.833 886.7624,-923.2516 885.128,-922.658"></path>
<polygon fill="#112c5f" stroke="#112c5f" stroke-width="2" points="886.2839,-919.3537 875.6912,-919.1382 883.8375,-925.9123 886.2839,-919.3537"></polygon>
</g>
<!-- cell_center_2&#45;&gt;cell_center_x_2 -->
<g id="edge39" class="edge">
<title>cell_center_1-&gt;NeighborhoodReporter_13727688377437822175</title>
<path fill="none" stroke="#112c5f" stroke-width="2" d="M1054.9968,-960.8543C1047.4155,-952.5423 1037.9807,-942.1981 1028.6067,-931.9206"></path>
<polygon fill="#112c5f" stroke="#112c5f" stroke-width="2" points="1031.1439,-929.5086 1021.8191,-924.4788 1025.9721,-934.2258 1031.1439,-929.5086"></polygon>
</g>
<!-- cell_center_2&#45;&gt;cell_center_y_2 -->
<g id="edge36" class="edge">
<title>cell_center_1-&gt;Mapper_1_100</title>
<path fill="none" stroke="#112c5f" stroke-width="2" d="M1121.9454,-976.7789C1294.9343,-971.0439 1850.6367,-950.6416 1878,-924.4 1918.0547,-885.9873 1893.5357,-713.4105 1880.5415,-638.0238"></path>
<polygon fill="#112c5f" stroke="#112c5f" stroke-width="2" points="1883.9681,-637.3001 1878.7924,-628.0555 1877.0734,-638.5099 1883.9681,-637.3001"></polygon>
</g>
<!-- cell_center_x_2&#45;&gt;Mapper_17359335164138667687 -->
<g id="edge37" class="edge">
<title>cell_center_1-&gt;MotilityReporter_10985171421200206384</title>
<path fill="none" stroke="#112c5f" stroke-width="2" d="M1118.14,-971.5138C1180.3649,-962.2412 1293.5385,-944.7456 1399.524,-924.6536"></path>
<polygon fill="#112c5f" stroke="#112c5f" stroke-width="2" points="1400.2603,-928.0764 1409.4273,-922.7645 1398.9486,-921.2003 1400.2603,-928.0764"></polygon>
</g>
<!-- cell_center_x_2&#45;&gt;PyMapper_5610331430625284783 -->
<g id="edge43" class="edge">
<title>cell_center_1-&gt;cell_center_x_1</title>
<path fill="none" stroke="#38568c" stroke-dasharray="5,2" d="M1121.9798,-977.571C1269.7325,-974.7165 1690.7233,-963.2235 1738,-924.4 1764.4206,-902.7035 1741.0413,-879.4908 1759,-850.4 1767.9717,-835.8669 1781.9424,-822.8333 1794.0371,-813.2132"></path>
</g>
<!-- cell_center_y_2&#45;&gt;Mapper_11329759407116316701 -->
<g id="edge44" class="edge">
<title>cell_center_1-&gt;cell_center_y_1</title>
<path fill="none" stroke="#38568c" stroke-dasharray="5,2" d="M1033.5589,-966.1466C984.877,-950.2143 906,-924.4 906,-924.4 882.3112,-899.7498 907.4218,-876.208 885,-850.4 866.3909,-828.9805 837.656,-815.6954 812.7472,-807.6643"></path>
</g>
<!-- cell_center_y_2&#45;&gt;PyMapper_5610331430625284783 -->
<g id="edge48" class="edge">
<title>cell_center_x_1-&gt;Mapper_17359335164138667687</title>
<path fill="none" stroke="#112c5f" stroke-width="2" d="M1823.5094,-814.433C1824.2855,-821.9033 1824.6975,-830.9522 1824.7453,-840.0983"></path>
<polygon fill="#112c5f" stroke="#112c5f" stroke-width="2" points="1821.2427,-840.353 1824.6445,-850.3868 1828.2424,-840.4216 1821.2427,-840.353"></polygon>
</g>
<!-- cell_center_y_2&#45;&gt;CellDeath_3163870799875249706 -->
<g id="edge49" class="edge">
<title>cell_center_x_1-&gt;PyMapper_5610331430625284783</title>
<path fill="none" stroke="#112c5f" stroke-width="2" d="M1771.6835,-784.0568C1763.1762,-782.0078 1754.3473,-780.0245 1746,-778.4 1720.8895,-773.5132 1713.5932,-777.4424 1689,-770.4 1663.6838,-763.1506 1637.1576,-752.6004 1613.2665,-741.8881"></path>
<polygon fill="#112c5f" stroke="#112c5f" stroke-width="2" points="1614.4518,-738.5821 1603.9007,-737.6209 1611.5495,-744.9521 1614.4518,-738.5821"></polygon>
</g>
<!-- cell_center_y_2&#45;&gt;Event_1365485953541288460 -->
<g id="edge55" class="edge">
<title>cell_center_y_1-&gt;Mapper_11329759407116316701</title>
<path fill="none" stroke="#112c5f" stroke-width="2" d="M748.5986,-813.9457C739.8995,-822.4339 728.3228,-833.0412 716.3982,-843.5326"></path>
<polygon fill="#112c5f" stroke="#112c5f" stroke-width="2" points="713.7749,-841.1764 708.5386,-850.3868 718.3757,-846.4521 713.7749,-841.1764"></polygon>
</g>
<!-- cell_center_y_2&#45;&gt;Event_4909293372181341941 -->
<g id="edge56" class="edge">
<title>cell_center_y_1-&gt;PyMapper_5610331430625284783</title>
<path fill="none" stroke="#112c5f" stroke-width="2" d="M807.63,-783.5456C816.6202,-781.4379 826.0562,-779.5645 835,-778.4 898.14,-770.1793 1346.522,-786.9738 1408,-770.4 1429.7188,-764.5449 1451.6749,-754.0245 1470.9518,-742.8982"></path>
<polygon fill="#112c5f" stroke="#112c5f" stroke-width="2" points="1472.7977,-745.8728 1479.6097,-737.7581 1469.2241,-739.8536 1472.7977,-745.8728"></polygon>
</g>
<!-- cell_type_2 -->

<!-- cell_type_2 -->
<g id="node65" class="node">
<title>cell_type_2</title>
<g id="a_node65">
<ellipse fill="#d3d247" stroke="#000000" cx="1967" cy="-1146.2" rx="44.0377" ry="18"></ellipse>
<text text-anchor="middle" x="1967" y="-1142" font-family="Times,serif" font-size="14.00" fill="#000000">cell.type</text>
</g>
</g><g id="edge52" class="edge">
<title>cell_center_y_1-&gt;CellDeath_3163870799875249706</title>
<path fill="none" stroke="#112c5f" stroke-width="2" d="M808.4669,-783.8112C817.2183,-781.7361 826.3521,-779.8067 835,-778.4 857.66,-774.7142 917.5658,-780.8644 938,-770.4 949.4782,-764.5219 959.615,-755.341 968.1052,-745.5468"></path>
<polygon fill="#112c5f" stroke="#112c5f" stroke-width="2" points="970.9634,-747.5794 974.5552,-737.612 965.5316,-743.164 970.9634,-747.5794"></polygon>
</g>
<!-- cell_type_2&#45;&gt;cell_type_0 -->

<!-- cell_type_2&#45;&gt;cell_type_0 -->
<g id="edge58" class="edge">
<title>cell_type_2-&gt;cell_type_0</title>
<path fill="none" stroke="#38568c" stroke-dasharray="5,2" d="M1967,-1128.0017C1967,-1081.7494 1967,-959.8039 1967,-909.5403"></path>
</g><g id="edge54" class="edge">
<title>cell_center_y_1-&gt;Event_3715702343552547593</title>
<path fill="none" stroke="#112c5f" stroke-width="2" d="M761.6834,-778.3808C761.0531,-769.7552 760.2656,-758.9772 759.4794,-748.2182"></path>
<polygon fill="#112c5f" stroke="#112c5f" stroke-width="2" points="762.9508,-747.6979 758.7313,-737.9796 755.9694,-748.2081 762.9508,-747.6979"></polygon>
</g>
<!-- color_2 -->

<!-- color_2 -->
<g id="node66" class="node">
<title>color_2</title>
<g id="a_node66">
<ellipse fill="#d3d247" stroke="#000000" cx="2060" cy="-1146.2" rx="30.7577" ry="18"></ellipse>
<text text-anchor="middle" x="2060" y="-1142" font-family="Times,serif" font-size="14.00" fill="#000000">color</text>
</g>
</g><g id="edge53" class="edge">
<title>cell_center_y_1-&gt;Event_13827901606324735539</title>
<path fill="none" stroke="#112c5f" stroke-width="2" d="M808.0356,-783.6032C816.908,-781.5194 826.1965,-779.6402 835,-778.4 885.4221,-771.297 1014.2454,-781.2312 1064,-770.4 1092.8485,-764.1199 1123.0292,-753.1194 1149.7226,-741.6831"></path>
<polygon fill="#112c5f" stroke="#112c5f" stroke-width="2" points="1151.2475,-744.8365 1159.0111,-737.6269 1148.4461,-738.4215 1151.2475,-744.8365"></polygon>
</g>
<!-- color_2&#45;&gt;color_0 -->

<!-- color_2&#45;&gt;color_0 -->
<g id="edge61" class="edge">
<title>color_2-&gt;color_0</title>
<path fill="none" stroke="#38568c" stroke-dasharray="5,2" d="M2090.3462,-1142.0698C2194.0525,-1127.1185 2528,-1071.7278 2528,-978.4 2528,-978.4 2528,-978.4 2528,-700.6 2528,-625.7304 2464.0229,-554.8509 2430.2849,-522.6781"></path>
</g><g id="node41" class="node">
<title>cell_type_1</title>
<g id="a_node41">
<ellipse fill="#d3d247" stroke="#000000" cx="1857" cy="-978.4" rx="44.0377" ry="18"></ellipse>
<text text-anchor="middle" x="1857" y="-974.2" font-family="Times,serif" font-size="14.00" fill="#000000">cell.type</text>
</g>
</g>
<!-- dir_2&#45;&gt;DirectedMotion_15064572531070919238 -->
<g id="edge57" class="edge">
<title>cell_type_1-&gt;cell_type_0</title>
<path fill="none" stroke="#38568c" stroke-dasharray="5,2" d="M1876.6658,-962.131C1895.452,-946.5897 1923.7759,-923.1581 1943.6886,-906.6848"></path>
</g>
<!-- directed_motion_dir_2 -->
<g id="node42" class="node">
<title>color_1</title>
<g id="a_node42">
<ellipse fill="#d3d247" stroke="#000000" cx="1492" cy="-602.6" rx="30.7577" ry="18"></ellipse>
<text text-anchor="middle" x="1492" y="-598.4" font-family="Times,serif" font-size="14.00" fill="#000000">color</text>
</g>
</g>
<!-- directed_motion_dir_2&#45;&gt;DirectedMotion_9174653547173877159 -->
<g id="edge60" class="edge">
<title>color_1-&gt;color_0</title>
<path fill="none" stroke="#38568c" stroke-dasharray="5,2" d="M1510.9611,-588.0163C1517.3148,-583.899 1524.6581,-579.9137 1532,-577.6 1678.8655,-531.3169 2071.1998,-560.6711 2224,-541.6 2278.2337,-534.831 2340.3407,-521.2831 2377.3066,-512.5939"></path>
</g>
<!-- directed_motion_strength_2 -->
<g id="edge62" class="edge">
<title>dir_1-&gt;DirectedMotion_11268721651180447268</title>
<path fill="none" stroke="#112c5f" stroke-width="2" d="M918.8889,-124.6425C910.9241,-114.8271 900.4623,-101.9345 890.8106,-90.0401"></path>
<polygon fill="#112c5f" stroke="#112c5f" stroke-width="2" points="893.3175,-87.5748 884.2986,-82.0151 887.8819,-91.9856 893.3175,-87.5748"></polygon>
</g>
<!-- directed_motion_strength_2&#45;&gt;DirectedMotion_9174653547173877159 -->
<g id="node44" class="node">
<title>directed_motion_dir_1</title>
<g id="a_node44">
<ellipse fill="#b5b426" stroke="#000000" cx="1088" cy="-140.8" rx="89.7691" ry="18"></ellipse>
<text text-anchor="middle" x="1088" y="-136.6" font-family="Times,serif" font-size="14.00" fill="#000000">directed_motion_dir</text>
</g>
</g>
<!-- mech_induced_dir_2&#45;&gt;VectorEquation_2_1 -->
<g id="edge63" class="edge">
<title>directed_motion_dir_1-&gt;DirectedMotion_9174653547173877159</title>
<path fill="none" stroke="#112c5f" stroke-width="2" d="M1121.7935,-124.0432C1143.3267,-113.3658 1171.8312,-99.2316 1197.1146,-86.6947"></path>
<polygon fill="#112c5f" stroke="#112c5f" stroke-width="2" points="1198.8607,-89.7356 1206.2649,-82.1574 1195.751,-83.4642 1198.8607,-89.7356"></polygon>
</g>
<!-- mech_induced_dir_abs_2 -->
<g id="node45" class="node">
<title>directed_motion_strength_1</title>
<g id="a_node45">
<ellipse fill="#d3d247" stroke="#000000" cx="1152" cy="-602.6" rx="110.0353" ry="18"></ellipse>
<text text-anchor="middle" x="1152" y="-598.4" font-family="Times,serif" font-size="14.00" fill="#000000">directed_motion_strength</text>
</g>
</g>
<!-- mech_induced_dir_2&#45;&gt;mech_induced_dir_abs_2 -->
<g id="edge64" class="edge">
<title>directed_motion_strength_1-&gt;DirectedMotion_9174653547173877159</title>
<path fill="none" stroke="#112c5f" stroke-width="2" d="M1158.5434,-584.3733C1171.024,-547.926 1197,-463.246 1197,-389.8 1197,-389.8 1197,-389.8 1197,-219.8 1197,-173.0557 1219.0471,-123.1609 1236.4124,-91.1115"></path>
<polygon fill="#112c5f" stroke="#112c5f" stroke-width="2" points="1239.5881,-92.6024 1241.3923,-82.1623 1233.4714,-89.1986 1239.5881,-92.6024"></polygon>
</g>
<!-- mech_induced_dir_abs_2&#45;&gt;VectorEquation_2_1 -->
<g id="node47" class="node">
<title>displacement_abs_1</title>
<ellipse fill="#d3d247" stroke="#000000" cx="1775" cy="-700.6" rx="77.0457" ry="18"></ellipse>
<text text-anchor="middle" x="1775" y="-696.4" font-family="Times,serif" font-size="14.00" fill="#000000">displacement.abs</text>
</g>
<!-- neighbor_center_x_2&#45;&gt;PyMapper_5610331430625284783 -->
<g id="edge66" class="edge">
<title>displacement_1-&gt;displacement_abs_1</title>
<path fill="none" stroke="#38568c" stroke-dasharray="5,2" d="M1693.3415,-778.8288C1711.272,-761.6514 1738.4298,-735.6342 1756.4361,-718.3842"></path>
</g>
<!-- neighbor_center_y_2&#45;&gt;PyMapper_5610331430625284783 -->
<g id="edge67" class="edge">
<title>displacement_abs_1-&gt;Mapper_1_100</title>
<path fill="none" stroke="#112c5f" stroke-width="2" d="M1793.1581,-682.6253C1806.6154,-669.3039 1825.3229,-650.7855 1841.3528,-634.9174"></path>
<polygon fill="#112c5f" stroke="#112c5f" stroke-width="2" points="1843.8564,-637.3639 1848.501,-627.8414 1838.9318,-632.3891 1843.8564,-637.3639"></polygon>
</g>
<!-- neighbor_velocity_x_2&#45;&gt;PyMapper_5610331430625284783 -->
<g id="edge69" class="edge">
<title>mech_induced_dir_1-&gt;VectorEquation_1_1</title>
<path fill="none" stroke="#112c5f" stroke-width="2" d="M1504.0365,-373.287C1480.8587,-360.5699 1450.8715,-341.0742 1431,-316.8 1422.8061,-306.7907 1411.1437,-278.21 1402.3508,-254.6468"></path>
<polygon fill="#112c5f" stroke="#112c5f" stroke-width="2" points="1405.6332,-253.4319 1398.8964,-245.2548 1399.0635,-255.8483 1405.6332,-253.4319"></polygon>
</g>
<!-- neighbor_velocity_y_2&#45;&gt;PyMapper_5610331430625284783 -->
<g id="node49" class="node">
<title>mech_induced_dir_abs_1</title>
<ellipse fill="#d3d247" stroke="#000000" cx="1538" cy="-298.8" rx="98.3812" ry="18"></ellipse>
<text text-anchor="middle" x="1538" y="-294.6" font-family="Times,serif" font-size="14.00" fill="#000000">mech_induced_dir.abs</text>
</g>
<!-- py_induced_dir_x_2&#45;&gt;VectorEquation_15961749812448151380 -->
<g id="edge70" class="edge">
<title>mech_induced_dir_1-&gt;mech_induced_dir_abs_1</title>
<path fill="none" stroke="#38568c" stroke-dasharray="5,2" d="M1538,-371.3848C1538,-355.4928 1538,-332.67 1538,-316.8773"></path>
</g>
<!-- py_induced_dir_y_2&#45;&gt;VectorEquation_15961749812448151380 -->
<g id="edge71" class="edge">
<title>mech_induced_dir_abs_1-&gt;VectorEquation_1_1</title>
<path fill="none" stroke="#112c5f" stroke-width="2" d="M1505.8862,-281.6582C1488.3348,-272.2895 1466.096,-260.4188 1445.8035,-249.587"></path>
<polygon fill="#112c5f" stroke="#112c5f" stroke-width="2" points="1447.4141,-246.4794 1436.9441,-244.858 1444.1178,-252.6547 1447.4141,-246.4794"></polygon>
</g>
<!-- target_volume_2 -->
<g id="edge73" class="edge">
<title>neighbor_center_x_1-&gt;PyMapper_5610331430625284783</title>
<path fill="none" stroke="#112c5f" stroke-width="2" d="M1515.7618,-778.3808C1517.5812,-769.6662 1519.8591,-758.7548 1522.1283,-747.8855"></path>
<polygon fill="#112c5f" stroke="#112c5f" stroke-width="2" points="1525.5788,-748.4838 1524.1963,-737.9796 1518.7265,-747.0532 1525.5788,-748.4838"></polygon>
</g>
<!-- target_volume_2&#45;&gt;VolumeConstraint_2 -->
<g id="edge74" class="edge">
<title>neighbor_center_y_1-&gt;PyMapper_5610331430625284783</title>
<path fill="none" stroke="#112c5f" stroke-width="2" d="M1377.2788,-782.0072C1387.5836,-778.5729 1398.2545,-774.6548 1408,-770.4 1426.2193,-762.4456 1445.2372,-752.5949 1462.7512,-742.8261"></path>
<polygon fill="#112c5f" stroke="#112c5f" stroke-width="2" points="1464.7761,-745.7021 1471.7607,-737.7355 1461.3325,-739.6076 1464.7761,-745.7021"></polygon>
</g>
<!-- tumble_last_2 -->
<g id="edge75" class="edge">
<title>neighbor_velocity_x_1-&gt;PyMapper_5610331430625284783</title>
<path fill="none" stroke="#112c5f" stroke-width="2" d="M998.5384,-783.4234C1010.5999,-781.398 1023.1521,-779.586 1035,-778.4 1076.2478,-774.271 1368.0156,-781.34 1408,-770.4 1429.6968,-764.4636 1451.6465,-753.9198 1470.9243,-742.7971"></path>
<polygon fill="#112c5f" stroke="#112c5f" stroke-width="2" points="1472.7684,-745.7727 1479.5832,-737.6604 1469.1969,-739.7523 1472.7684,-745.7727"></polygon>
</g>
<!-- tumble_last_2&#45;&gt;Event_6519872361270148854 -->
<g id="edge76" class="edge">
<title>neighbor_velocity_y_1-&gt;PyMapper_5610331430625284783</title>
<path fill="none" stroke="#112c5f" stroke-width="2" d="M1199.1,-783.5709C1210.9944,-781.5582 1223.343,-779.7129 1235,-778.4 1273.2437,-774.0928 1371.0075,-781.0155 1408,-770.4 1429.3192,-764.2822 1450.9363,-753.8704 1470.0202,-742.9289"></path>
<polygon fill="#112c5f" stroke="#112c5f" stroke-width="2" points="1472.0463,-745.7975 1478.8853,-737.7056 1468.4928,-739.7665 1472.0463,-745.7975"></polygon>
</g>
<!-- tumble_run_duration_2 -->
<g id="edge77" class="edge">
<title>py_induced_dir_x_1-&gt;VectorEquation_15961749812448151380</title>
<path fill="none" stroke="#112c5f" stroke-width="2" d="M1410.4245,-588.0644C1442.5954,-577.7501 1485.6793,-562.6747 1530.4062,-541.6215"></path>
<polygon fill="#112c5f" stroke="#112c5f" stroke-width="2" points="1532.1635,-544.6606 1539.6708,-537.1846 1529.1399,-538.3473 1532.1635,-544.6606"></polygon>
</g>
<!-- tumble_run_duration_2&#45;&gt;Event_6519872361270148854 -->
<g id="edge78" class="edge">
<title>py_induced_dir_y_1-&gt;VectorEquation_15961749812448151380</title>
<path fill="none" stroke="#112c5f" stroke-width="2" d="M1707.9401,-585.3052C1692.056,-574.3428 1670.7957,-559.6703 1650.7606,-545.8432"></path>
<polygon fill="#112c5f" stroke="#112c5f" stroke-width="2" points="1652.4867,-542.7819 1642.2684,-539.9824 1648.5106,-548.5431 1652.4867,-542.7819"></polygon>
</g>
<!-- velocity_2&#45;&gt;velocity_0 -->
<g id="node57" class="node">
<title>target_volume_1</title>
<g id="a_node57">
<ellipse fill="#d3d247" stroke="#000000" cx="645" cy="-140.8" rx="66.6344" ry="18"></ellipse>
<text text-anchor="middle" x="645" y="-136.6" font-family="Times,serif" font-size="14.00" fill="#000000">target_volume</text>
</g>
</g>
<!-- Event_6519872361270148854&#45;&gt;RaT_dir_2 -->
<g id="edge80" class="edge">
<title>target_volume_1-&gt;VolumeConstraint_1</title>
<path fill="none" stroke="#112c5f" stroke-width="2" d="M645,-122.6166C645,-111.7452 645,-97.6975 645,-85.3909"></path>
<polygon fill="#112c5f" stroke="#112c5f" stroke-width="2" points="648.5001,-85.1478 645,-75.1479 641.5001,-85.1479 648.5001,-85.1478"></polygon>
</g>
<!-- Event_6519872361270148854&#45;&gt;tumble_last_2 -->
<g id="node58" class="node">
<title>tumble_last_1</title>
<g id="a_node58">
<ellipse fill="#d3d247" stroke="#000000" cx="1468" cy="-504.6" rx="53.8676" ry="18"></ellipse>
<text text-anchor="middle" x="1468" y="-500.4" font-family="Times,serif" font-size="14.00" fill="#000000">tumble.last</text>
</g>
</g>
<!-- Event_6519872361270148854&#45;&gt;tumble_run_duration_2 -->
<g id="edge85" class="edge">
<title>tumble_last_1-&gt;Event_6519872361270148854</title>
<path fill="none" stroke="#112c5f" stroke-width="2" d="M1458.5476,-486.7414C1451.2651,-478.5209 1441.5992,-468.6116 1433,-459.6 1425.2195,-451.4463 1416.9815,-442.6943 1408.9102,-434.2386"></path>
<polygon fill="#112c5f" stroke="#112c5f" stroke-width="2" points="1411.3246,-431.6995 1401.8759,-426.9065 1406.2733,-436.5456 1411.3246,-431.6995"></polygon>
</g>
<!-- Event_1365485953541288460&#45;&gt;RandT_or_Mech_motion_strength_2 -->
<g id="node59" class="node">
<title>tumble_run_duration_1</title>
<g id="a_node59">
<ellipse fill="#d3d247" stroke="#000000" cx="1306" cy="-504.6" rx="90.3139" ry="18"></ellipse>
<text text-anchor="middle" x="1306" y="-500.4" font-family="Times,serif" font-size="14.00" fill="#000000">tumble.run_duration</text>
</g>
</g>
<!-- Event_1365485953541288460&#45;&gt;color_2 -->
<g id="edge86" class="edge">
<title>tumble_run_duration_1-&gt;Event_6519872361270148854</title>
<path fill="none" stroke="#112c5f" stroke-width="2" d="M1319.3438,-486.6625C1326.9356,-473.254 1336.2252,-454.2773 1344.0097,-436.6695"></path>
<polygon fill="#112c5f" stroke="#112c5f" stroke-width="2" points="1347.4031,-437.6401 1348.1592,-427.0723 1340.9779,-434.862 1347.4031,-437.6401"></polygon>
</g>
<!-- Event_1365485953541288460&#45;&gt;directed_motion_strength_2 -->
<g id="edge90" class="edge">
<title>velocity_1-&gt;velocity_0</title>
<path fill="none" stroke="#38568c" stroke-dasharray="5,2" d="M610.2061,-809.4791C604.8916,-811.4009 599.3444,-813.1506 594,-814.4 413.2925,-856.6458 346.0502,-771.666 178,-850.4 115.6755,-879.6 95.1932,-896.7533 69,-960.4 57.3629,-988.6768 53.1028,-1003.0795 69,-1029.2 73.5972,-1036.7536 80.7774,-1042.4893 88.5398,-1046.8136"></path>
</g>
<!-- Event_4909293372181341941&#45;&gt;RandT_or_Mech_motion_strength_2 -->
<g id="edge10" class="edge">
<title>Event_6519872361270148854-&gt;RaT_dir_1</title>
<path fill="none" stroke="#8f100d" stroke-width="3" d="M1359,-352.7868C1359,-344.1649 1359,-335.1214 1359,-326.9547"></path>
<polygon fill="#8f100d" stroke="#8f100d" stroke-width="3" points="1362.5001,-326.833 1359,-316.833 1355.5001,-326.8331 1362.5001,-326.833"></polygon>
</g>
<!-- Event_4909293372181341941&#45;&gt;directed_motion_strength_2 -->
<g id="edge11" class="edge">
<title>Event_6519872361270148854-&gt;tumble_last_1</title>
<path fill="none" stroke="#8f100d" stroke-width="3" d="M1384.607,-426.9065C1394.116,-437.5156 1404.9403,-449.0578 1415,-459.6 1421.7582,-466.6823 1429.1753,-474.3191 1436.348,-481.2548"></path>
<polygon fill="#8f100d" stroke="#8f100d" stroke-width="3" points="1434.3107,-484.1436 1443.9926,-488.4461 1439.107,-479.045 1434.3107,-484.1436"></polygon>
</g>
<!-- cell_center_3 -->
<g id="edge12" class="edge">
<title>Event_6519872361270148854-&gt;tumble_run_duration_1</title>
<path fill="none" stroke="#8f100d" stroke-width="3" d="M1335.5064,-426.9113C1327.3898,-443.091 1318.9391,-461.739 1312.9918,-476.709"></path>
<polygon fill="#8f100d" stroke="#8f100d" stroke-width="3" points="1309.5862,-475.8184 1309.3092,-486.4096 1316.1305,-478.3028 1309.5862,-475.8184"></polygon>
</g>
<!-- cell_center_3&#45;&gt;cell_center_0 -->
<g id="edge7" class="edge">
<title>Event_3715702343552547593-&gt;RandT_or_Mech_motion_strength_1</title>
<path fill="none" stroke="#8f100d" stroke-width="3" d="M796.8302,-663.5504C810.1583,-651.4564 824.6263,-638.328 836.7096,-627.3635"></path>
<polygon fill="#8f100d" stroke="#8f100d" stroke-width="3" points="839.216,-629.8154 844.2697,-620.5035 834.5121,-624.6314 839.216,-629.8154"></polygon>
</g>
<!-- cell_type_3 -->
<g id="edge8" class="edge">
<title>Event_3715702343552547593-&gt;color_1</title>
<path fill="none" stroke="#8f100d" stroke-width="3" d="M887.9565,-663.5489C902.0688,-660.4638 916.2779,-657.7207 930,-655.6 1044.8039,-637.8576 1341.2329,-662.6053 1452,-627.6 1456.1288,-626.2952 1460.2584,-624.4629 1464.2124,-622.3766"></path>
<polygon fill="#8f100d" stroke="#8f100d" stroke-width="3" points="1466.1982,-625.269 1473.0367,-617.1766 1462.6443,-619.2382 1466.1982,-625.269"></polygon>
</g>
<!-- cell_type_3&#45;&gt;cell_type_0 -->
<g id="edge9" class="edge">
<title>Event_3715702343552547593-&gt;directed_motion_strength_1</title>
<path fill="none" stroke="#8f100d" stroke-width="3" d="M898.3811,-663.5459C909.075,-660.8337 919.7047,-658.16 930,-655.6 979.5882,-643.2696 1035.5495,-629.9131 1078.8805,-619.6931"></path>
<polygon fill="#8f100d" stroke="#8f100d" stroke-width="3" points="1079.8365,-623.0638 1088.7674,-617.3639 1078.2313,-616.2503 1079.8365,-623.0638"></polygon>
</g>

</g>
</svg>